ISYE 6420: Homework 5
…
We might have also calculated and compared the \(R^2\) statistic for each univariate model, choosing the model/variable having the largest \(R^2\).

We could have used a classical approach where we perform (non-Bayesian) step-wise regression.

Regarding (2), see the implementation below. We add variables to a trivial model (with no predictors) based on which variable improves the Akaike information criterion (AIC) of the model the most. We observe from the first iteration that the BAI variable is added first. This agrees with our finding using the LI statistic.

data_q2 <- 
  'q2-data.xlsx' %>% 
  readxl::read_excel() %>% 
  janitor::clean_names() %>% 
  mutate(bb = bai * bmi)
data_q2

## # A tibble: 3,200 x 6
##      age gender   bai   bmi    bf    bb
##    <dbl>  <dbl> <dbl> <dbl> <dbl> <dbl>
##  1    42      1 22.81  19    17.4 433.4
##  2    23      1 21.78  17.6  26   383.3
##  3    25      1 21.53  18.8  28.7 404.8
##  4    31      1 25.55  19.1  29.2 488.0
##  5    57      1 23.18  19.9  22.8 461.3
##  6    49      1 22.78  18.8  18.8 428.3
##  7    27      1 22.78  16.8  28.8 382.7
##  8    23      1 24.49  17.9  17.8 438.4
##  9    32      1 24.09  19.7  18   474.6
## 10    26      1 23.9   18.6  25.2 444.5
## # ... with 3,190 more rows
…
## [1] 70 61 49 23 10  7

ones <- .y %>% purrr::map(~rep(1L, .x))
zeros <- .diff %>% purrr::map(~rep(0L, .x))
data_explicit <-
  purrr::map2(ones, zeros, c) %>% 
  tibble(x = .x, response = .) %>% 
  unnest(response)
data_explicit

## # A tibble: 420 x 2
##        x response
##    <int>    <int>
##  1     0        0
##  2     0        0
##  3     0        0
##  4     0        0
##  5     0        0
##  6     0        0
##  7     0        0
##  8     0        0
##  9     0        0
## 10     0        0
## # ... with 410 more rows
…
