ISYE 6420: Project
…
data <-
  tibble(season = seasons) %>% 
  mutate(data = purrr::map(season, scrape_epl_data)) %>% 
  unnest(data)

data

## # A tibble: 1,140 x 10
##    season date       tm_h  tm_a    g_h   g_a g_total g_diff result
##     <dbl> <date>     <chr> <chr> <dbl> <dbl>   <dbl>  <dbl> <chr> 
##  1   2015 2015-08-08 Bour~ Asto~     0     1       1     -1 a     
##  2   2015 2015-08-08 Chel~ Swan~     2     2       4      0 t     
##  3   2015 2015-08-08 Ever~ Watf~     2     2       4      0 t     
##  4   2015 2015-08-08 Leic~ Sund~     4     2       6      2 h     
##  5   2015 2015-08-08 Man ~ Tott~     1     0       1      1 h     
##  6   2015 2015-08-08 Norw~ Crys~     1     3       4     -2 a     
##  7   2015 2015-08-09 Arse~ West~     0     2       2     -2 a     
##  8   2015 2015-08-09 Newc~ Sout~     2     2       4      0 t     
##  9   2015 2015-08-09 Stoke Live~     0     1       1     -1 a     
## 10   2015 2015-08-10 West~ Man ~     0     3       3     -3 a     
## # ... with 1,130 more rows, and 1 more variable: tm_winner <chr>
…
